…
    ## # A tibble: 1 × 2
    ##   summary   cost
    ##   <chr>    <dbl>
    ## 1 overall 28280.

``` r
# calculate target coverage for the solution
p1_target_coverage <- eval_target_coverage_summary(p1, s1)
print(p1_target_coverage)
```

    ## # A tibble: 400 × 9
    ##    feature         met   total…¹ absol…² absol…³ absol…⁴ relat…⁵ relat…⁶ relat…⁷
    ##    <chr>           <lgl>   <dbl>   <dbl>   <dbl>   <dbl>   <dbl>   <dbl>   <dbl>
    ##  1 American Avoce… TRUE    100.     20.0    23.7       0     0.2   0.237       0
    ##  2 American Bitte… TRUE     99.9    20.0    23.3       0     0.2   0.234       0
    ##  3 American Bitte… TRUE    100.     20.0    28.1       0     0.2   0.281       0
    ##  4 American Crow … TRUE     99.9    20.0    20.3       0     0.2   0.203       0
    ##  5 American Crow … TRUE     99.9    20.0    20.4       0     0.2   0.204       0
    ##  6 American Dippe… TRUE    100.     20.0    20.1       0     0.2   0.201       0
    ##  7 American Goldf… TRUE     99.9    20.0    20.5       0     0.2   0.205       0
    ##  8 American Goldf… TRUE     99.9    20.0    20.3       0     0.2   0.203       0
    ##  9 American Kestr… TRUE     99.9    20.0    20.7       0     0.2   0.207       0
    ## 10 American Kestr… TRUE    100.     20.0    20.8       0     0.2   0.208       0
    ## # … with 390 more rows, and abbreviated variable names ¹​total_amount,
    ## #   ²​absolute_target, ³​absolute_held, ⁴​absolute_shortfall, ⁵​relative_target,
    ## #   ⁶​relative_held, ⁷​relative_shortfall
…
