Tasmania Tutorial
…
# count number of planning units in solution
sum(s1$solution_1)

## [1] 322

# proportion of planning units in solution
mean(s1$solution_1)

## [1] 0.2849558

# calculate feature representation
r1 <- feature_representation(p1, s1[, "solution_1", drop = FALSE])
print(r1)

## # A tibble: 62 x 3
##    feature absolute_held relative_held
##    <chr>           <dbl>         <dbl>
##  1 veg1             8.24         0.261
##  2 veg2            42.0          0.235
##  3 veg3             5.90         0.252
##  4 veg4            10.1          0.318
##  5 veg5             4.54         0.189
##  6 veg6             7            0.305
##  7 veg7             3.76         0.202
##  8 veg8             9.29         0.198
##  9 veg9            94.5          0.246
## 10 veg10            5.00         0.357
## # … with 52 more rows
…
# calculate feature representation
r2 <- feature_representation(p2, s2[, "solution_1"])
print(r2)

## # A tibble: 62 x 3
##    feature         absolute_held relative_held
##    <chr>                   <dbl>         <dbl>
##  1 tas_features.1           8.24         0.261
##  2 tas_features.2          42.0          0.235
##  3 tas_features.3           5.90         0.252
##  4 tas_features.4          10.1          0.318
##  5 tas_features.5           4.54         0.189
##  6 tas_features.6           7            0.305
##  7 tas_features.7           3.76         0.202
##  8 tas_features.8           9.29         0.198
##  9 tas_features.9          94.5          0.246
## 10 tas_features.10          5.00         0.357
## # … with 52 more rows
…
