Systematic Conservation Prioritization in R • prioritizr
…
# calculate total cost of solution
eval_cost_summary(p1, s1)

## # A tibble: 1 × 2
##   summary  cost
##   <chr>   <dbl>
## 1 overall 8748.

# calculate target coverage for the solution
p1_target_coverage <- eval_target_coverage_summary(p1, s1)
print(p1_target_coverage)

## # A tibble: 396 × 9
##    feature         met   total…¹ absol…² absol…³ absol…⁴ relat…⁵ relat…⁶ relat…⁷
##    <chr>           <lgl>   <dbl>   <dbl>   <dbl>   <dbl>   <dbl>   <dbl>   <dbl>
##  1 Recurvirostra … TRUE    100.     20.0    23.4    0        0.2   0.233  0     
##  2 Botaurus lenti… TRUE     99.9    20.0    29.2    0        0.2   0.293  0     
##  3 Botaurus lenti… TRUE    100.     20.0    34.0    0        0.2   0.340  0     
##  4 Corvus brachyr… TRUE     99.9    20.0    20.2    0        0.2   0.202  0     
##  5 Corvus brachyr… FALSE    99.9    20.0    18.7    1.29     0.2   0.187  0.0129
##  6 Cinclus mexica… TRUE    100.     20.0    20.4    0        0.2   0.204  0     
##  7 Spinus tristis… TRUE     99.9    20.0    22.4    0        0.2   0.224  0     
##  8 Spinus tristis… TRUE     99.9    20.0    23.0    0        0.2   0.230  0     
##  9 Falco sparveri… TRUE     99.9    20.0    24.5    0        0.2   0.245  0     
## 10 Falco sparveri… TRUE    100.     20.0    24.4    0        0.2   0.244  0     
## # … with 386 more rows, and abbreviated variable names ¹​total_amount,
## #   ²​absolute_target, ³​absolute_held, ⁴​absolute_shortfall, ⁵​relative_target,
## #   ⁶​relative_held, ⁷​relative_shortfall
…
