Calibrating trade-offs tutorial • prioritizr
…
# set seed for reproducibility
set.seed(500)

# load planning unit data
tas_pu <- get_tas_pu()
print(tas_pu)

## Simple feature collection with 1130 features and 4 fields
## Geometry type: MULTIPOLYGON
## Dimension:     XY
## Bounding box:  xmin: 298809.6 ymin: 5167775 xmax: 613818.8 ymax: 5502544
## Projected CRS: WGS 84 / UTM zone 55S
## # A tibble: 1,130 × 5
##       id  cost locked_in locked_out                                         geom
##    <int> <dbl> <lgl>     <lgl>                                <MULTIPOLYGON [m]>
##  1     1 60.2  FALSE     TRUE       (((328497 5497704, 326783.8 5500050, 326775…
##  2     2 19.9  FALSE     FALSE      (((307121.6 5490487, 305344.4 5492917, 3053…
##  3     3 59.7  FALSE     TRUE       (((321726.1 5492382, 320111 5494593, 320127…
##  4     4 32.4  FALSE     FALSE      (((304314.5 5494324, 304342.2 5494287, 3043…
##  5     5 26.2  FALSE     FALSE      (((314958.5 5487057, 312336 5490646, 312339…
##  6     6 51.3  FALSE     FALSE      (((327904.3 5491218, 326594.6 5493012, 3284…
##  7     7 32.3  FALSE     FALSE      (((308194.1 5481729, 306601.2 5483908, 3066…
##  8     8 38.4  FALSE     FALSE      (((322792.7 5483624, 319965.3 5487497, 3199…
##  9     9  3.55 FALSE     FALSE      (((334896.6 5490731, 335610.4 5492490, 3357…
## 10    10  1.83 FALSE     FALSE      (((356377.1 5487952, 353903.1 5487635, 3538…
## # ℹ 1,120 more rows
…
# print result
print(s0)

## Simple feature collection with 1130 features and 5 fields
## Geometry type: MULTIPOLYGON
## Dimension:     XY
## Bounding box:  xmin: 298809.6 ymin: 5167775 xmax: 613818.8 ymax: 5502544
## Projected CRS: WGS 84 / UTM zone 55S
## # A tibble: 1,130 × 6
##       id  cost locked_in locked_out solution_1                          geometry
##  * <int> <dbl> <lgl>     <lgl>           <dbl>                <MULTIPOLYGON [m]>
##  1     1 60.2  FALSE     TRUE                0 (((328497 5497704, 326783.8 5500…
##  2     2 19.9  FALSE     FALSE               0 (((307121.6 5490487, 305344.4 54…
##  3     3 59.7  FALSE     TRUE                0 (((321726.1 5492382, 320111 5494…
##  4     4 32.4  FALSE     FALSE               0 (((304314.5 5494324, 304342.2 54…
##  5     5 26.2  FALSE     FALSE               0 (((314958.5 5487057, 312336 5490…
##  6     6 51.3  FALSE     FALSE               0 (((327904.3 5491218, 326594.6 54…
##  7     7 32.3  FALSE     FALSE               0 (((308194.1 5481729, 306601.2 54…
##  8     8 38.4  FALSE     FALSE               0 (((322792.7 5483624, 319965.3 54…
##  9     9  3.55 FALSE     FALSE               0 (((334896.6 5490731, 335610.4 54…
## 10    10  1.83 FALSE     FALSE               0 (((356377.1 5487952, 353903.1 54…
## # ℹ 1,120 more rows
…
