Package overview • prioritizr
…
Secondly, we will load one of the spatial vector planning unit data sets (sim_pu_polygons). Here, each polygon (i.e., feature using ArcGIS terminology) corresponds to a different planning unit. This data set has an attribute table that contains additional information about each polygon. Namely, the cost field (column) in the attribute table contains the acquisition cost for each planning unit.

# load polygon planning unit data
sim_pu_polygons <- get_sim_pu_polygons()

# print data
print(sim_pu_polygons)

## Simple feature collection with 90 features and 3 fields
## Geometry type: POLYGON
## Dimension:     XY
## Bounding box:  xmin: 0 ymin: 0 xmax: 1 ymax: 1
## Projected CRS: Undefined Cartesian SRS
## # A tibble: 90 × 4
##     cost locked_in locked_out                                      geom
##  * <dbl> <lgl>     <lgl>                                  <POLYGON [m]>
##  1  216. FALSE     FALSE            ((0 1, 0.1 1, 0.1 0.9, 0 0.9, 0 1))
##  2  213. FALSE     FALSE      ((0.1 1, 0.2 1, 0.2 0.9, 0.1 0.9, 0.1 1))
##  3  207. FALSE     FALSE      ((0.2 1, 0.3 1, 0.3 0.9, 0.2 0.9, 0.2 1))
##  4  209. FALSE     TRUE       ((0.3 1, 0.4 1, 0.4 0.9, 0.3 0.9, 0.3 1))
##  5  214. FALSE     FALSE      ((0.4 1, 0.5 1, 0.5 0.9, 0.4 0.9, 0.4 1))
##  6  214. FALSE     FALSE      ((0.5 1, 0.6 1, 0.6 0.9, 0.5 0.9, 0.5 1))
##  7  210. FALSE     FALSE      ((0.6 1, 0.7 1, 0.7 0.9, 0.6 0.9, 0.6 1))
##  8  211. FALSE     TRUE       ((0.7 1, 0.8 1, 0.8 0.9, 0.7 0.9, 0.7 1))
##  9  210. FALSE     FALSE      ((0.8 1, 0.9 1, 0.9 0.9, 0.8 0.9, 0.8 1))
## 10  204. FALSE     FALSE          ((0.9 1, 1 1, 1 0.9, 0.9 0.9, 0.9 1))
## # ℹ 80 more rows
…
If our planning unit data are in a spatial vector format (similar to the sim_pu_polygons data) or a tabular format (similar to pu_dat), we can use the field names in the data to refer to which planning units should be locked in and / or out. For example, the sim_pu_polygons object has TRUE / FALSE values in the “locked_in” field which indicate which planning units should be selected in the solution. We could use the data in this field to specify that those planning units with TRUE values should be locked in using the following methods.

# preview sim_pu_polygons object
print(sim_pu_polygons)

## Simple feature collection with 90 features and 3 fields
## Geometry type: POLYGON
## Dimension:     XY
## Bounding box:  xmin: 0 ymin: 0 xmax: 1 ymax: 1
## Projected CRS: Undefined Cartesian SRS
## # A tibble: 90 × 4
##     cost locked_in locked_out                                      geom
##  * <dbl> <lgl>     <lgl>                                  <POLYGON [m]>
##  1  216. FALSE     FALSE            ((0 1, 0.1 1, 0.1 0.9, 0 0.9, 0 1))
##  2  213. FALSE     FALSE      ((0.1 1, 0.2 1, 0.2 0.9, 0.1 0.9, 0.1 1))
##  3  207. FALSE     FALSE      ((0.2 1, 0.3 1, 0.3 0.9, 0.2 0.9, 0.2 1))
##  4  209. FALSE     TRUE       ((0.3 1, 0.4 1, 0.4 0.9, 0.3 0.9, 0.3 1))
##  5  214. FALSE     FALSE      ((0.4 1, 0.5 1, 0.5 0.9, 0.4 0.9, 0.4 1))
##  6  214. FALSE     FALSE      ((0.5 1, 0.6 1, 0.6 0.9, 0.5 0.9, 0.5 1))
##  7  210. FALSE     FALSE      ((0.6 1, 0.7 1, 0.7 0.9, 0.6 0.9, 0.6 1))
##  8  211. FALSE     TRUE       ((0.7 1, 0.8 1, 0.8 0.9, 0.7 0.9, 0.7 1))
##  9  210. FALSE     FALSE      ((0.8 1, 0.9 1, 0.9 0.9, 0.8 0.9, 0.8 1))
## 10  204. FALSE     FALSE          ((0.9 1, 1 1, 1 0.9, 0.9 0.9, 0.9 1))
## # ℹ 80 more rows
…
