Getting started • prioritizr
…
Feature representation

Let’s examine how well the vegetation communities are represented by existing protected areas and the prioritization.

# create column with existing protected areas
tas_pu$pa <- round(tas_pu$locked_in)

# calculate feature representation statistics based on existing protected areas
tc_pa <- eval_target_coverage_summary(p1, tas_pu[, "pa"])
print(tc_pa)

## # A tibble: 62 × 9
##    feature         met   total…¹ absol…² absol…³ absol…⁴ relat…⁵ relat…⁶ relat…⁷
##    <chr>           <lgl>   <dbl>   <dbl>   <dbl>   <dbl>   <dbl>   <dbl>   <dbl>
##  1 tas_features.1  FALSE    33.9    5.77   0.556    5.21    0.17  0.0164  0.154 
##  2 tas_features.2  FALSE   170.    28.9   13.5     15.4     0.17  0.0796  0.0904
##  3 tas_features.3  FALSE    24.0    4.08   2.00     2.08    0.17  0.0832  0.0868
##  4 tas_features.4  FALSE    32.8    5.57   1.37     4.19    0.17  0.0420  0.128 
##  5 tas_features.5  FALSE    24.8    4.21   0        4.21    0.17  0       0.17  
##  6 tas_features.6  FALSE    22.0    3.74   0        3.74    0.17  0       0.17  
##  7 tas_features.7  FALSE    16.4    2.78   0        2.78    0.17  0       0.17  
##  8 tas_features.8  FALSE    43.0    7.31   5.12     2.19    0.17  0.119   0.0510
##  9 tas_features.9  FALSE   388.    66.0   22.4     43.5     0.17  0.0578  0.112 
## 10 tas_features.10 FALSE    14.5    2.47   0        2.47    0.17  0       0.17  
## # … with 52 more rows, and abbreviated variable names ¹​total_amount,
## #   ²​absolute_target, ³​absolute_held, ⁴​absolute_shortfall, ⁵​relative_target,
## #   ⁶​relative_held, ⁷​relative_shortfall

# calculate  feature representation statistics based on the prioritization
tc_s1 <- eval_target_coverage_summary(p1, s1[, "solution_1"])
print(tc_s1)

## # A tibble: 62 × 9
##    feature         met   total…¹ absol…² absol…³ absol…⁴ relat…⁵ relat…⁶ relat…⁷
##    <chr>           <lgl>   <dbl>   <dbl>   <dbl>   <dbl>   <dbl>   <dbl>   <dbl>
##  1 tas_features.1  TRUE     33.9    5.77    6.97       0    0.17   0.205       0
##  2 tas_features.2  TRUE    170.    28.9    44.8        0    0.17   0.264       0
##  3 tas_features.3  TRUE     24.0    4.08    5.00       0    0.17   0.208       0
##  4 tas_features.4  TRUE     32.8    5.57   12.4        0    0.17   0.378       0
##  5 tas_features.5  TRUE     24.8    4.21    4.49       0    0.17   0.181       0
##  6 tas_features.6  TRUE     22.0    3.74    9.10       0    0.17   0.414       0
##  7 tas_features.7  TRUE     16.4    2.78    3.00       0    0.17   0.183       0
##  8 tas_features.8  TRUE     43.0    7.31    8.12       0    0.17   0.189       0
##  9 tas_features.9  TRUE    388.    66.0    76.0        0    0.17   0.196       0
## 10 tas_features.10 TRUE     14.5    2.47    3          0    0.17   0.207       0
## # … with 52 more rows, and abbreviated variable names ¹​total_amount,
## #   ²​absolute_target, ³​absolute_held, ⁴​absolute_shortfall, ⁵​relative_target,
## #   ⁶​relative_held, ⁷​relative_shortfall
…
