Solver benchmarks • prioritizr
…
# extract columns from table with relevant data
benchmark_results <-
  benchmark_results %>%
  dplyr::select(
    id, number_of_planning_units, number_features,
    objective, budget, relative_target, boundary_penalty,
    solver, status, total_time, run_time, exceeded_run_time
  )

# preview results
print(benchmark_results)

## # A tibble: 576 × 12
##    id    number_of_planning_u…¹ number_features objective budget relative_target
##    <chr>                  <int>           <int> <chr>      <dbl>           <dbl>
##  1 0095…                  12902              72 add_min_…   NA              0.3 
##  2 00da…                 606180              72 add_min_…    0.1            0.1 
##  3 00e9…                 606180              72 add_min_…   NA              0.2 
##  4 0115…                   1478              72 add_min_…    0.1            0.3 
##  5 0125…                   1478              72 add_min_…   NA              0.15
##  6 012c…                   1478              72 add_min_…   NA              0.3 
##  7 0184…                 606180              72 add_min_…   NA              0.2 
##  8 02ae…                 606180              72 add_min_…    0.1            0.2 
##  9 03fd…                 102242              72 add_min_…   NA              0.3 
## 10 0408…                  12902              72 add_min_…    0.1            0.15
## # ℹ 566 more rows
## # ℹ abbreviated name: ¹​number_of_planning_units
## # ℹ 6 more variables: boundary_penalty <dbl>, solver <chr>, status <chr>,
## #   total_time <dbl>, run_time <dbl>, exceeded_run_time <lgl>
…
