Tasmania Tutorial • prioritizr
…
# count number of planning units in solution
sum(s1$solution_1)

## [1] 317

# proportion of planning units in solution
mean(s1$solution_1)

## [1] 0.280531

# calculate feature representation
r1 <- feature_representation(p1, s1[, "solution_1", drop = FALSE])
print(r1)

## # A tibble: 62 x 3
##    feature absolute_held relative_held
##    <chr>           <dbl>         <dbl>
##  1 veg1           0.107          0.176
##  2 veg2           0.563          0.172
##  3 veg3           0.0930         0.231
##  4 veg4           0.172          0.309
##  5 veg5           0.0775         0.191
##  6 veg6           0.0606         0.176
##  7 veg7           0.0462         0.191
##  8 veg8           0.185          0.248
##  9 veg9           1.46           0.242
## 10 veg10          0.0716         0.313
## # … with 52 more rows
…
# calculate feature representation
r2 <- feature_representation(p2, s2[, "solution_1"])
print(r2)

## # A tibble: 62 x 3
##    feature  absolute_held relative_held
##    <chr>            <dbl>         <dbl>
##  1 layer.1         0.107          0.176
##  2 layer.2         0.563          0.172
##  3 layer.3         0.0930         0.231
##  4 layer.4         0.172          0.309
##  5 layer.5         0.0775         0.191
##  6 layer.6         0.0606         0.176
##  7 layer.7         0.0462         0.191
##  8 layer.8         0.185          0.248
##  9 layer.9         1.46           0.242
## 10 layer.10        0.0716         0.313
## # … with 52 more rows
…
