Evaluate boundary length of solution — eval_boundary_summary • prioritizr
…
# solve the problem
s2 <- solve(p2)

# print solution
print(s2)
#> Simple feature collection with 90 features and 4 fields
#> Geometry type: POLYGON
#> Dimension:     XY
#> Bounding box:  xmin: 0 ymin: 0 xmax: 1 ymax: 1
#> Projected CRS: Undefined Cartesian SRS
#> # A tibble: 90 × 5
#>     cost locked_in locked_out solution_1                                    geom
#>    <dbl> <lgl>     <lgl>           <dbl>                           <POLYGON [m]>
#>  1  216. FALSE     FALSE               0     ((0 1, 0.1 1, 0.1 0.9, 0 0.9, 0 1))
#>  2  213. FALSE     FALSE               0 ((0.1 1, 0.2 1, 0.2 0.9, 0.1 0.9, 0.1 …
#>  3  207. FALSE     FALSE               0 ((0.2 1, 0.3 1, 0.3 0.9, 0.2 0.9, 0.2 …
#>  4  209. FALSE     TRUE                0 ((0.3 1, 0.4 1, 0.4 0.9, 0.3 0.9, 0.3 …
#>  5  214. FALSE     FALSE               0 ((0.4 1, 0.5 1, 0.5 0.9, 0.4 0.9, 0.4 …
#>  6  214. FALSE     FALSE               0 ((0.5 1, 0.6 1, 0.6 0.9, 0.5 0.9, 0.5 …
#>  7  210. FALSE     FALSE               0 ((0.6 1, 0.7 1, 0.7 0.9, 0.6 0.9, 0.6 …
#>  8  211. FALSE     TRUE                0 ((0.7 1, 0.8 1, 0.8 0.9, 0.7 0.9, 0.7 …
#>  9  210. FALSE     FALSE               0 ((0.8 1, 0.9 1, 0.9 0.9, 0.8 0.9, 0.8 …
#> 10  204. FALSE     FALSE               0   ((0.9 1, 1 1, 1 0.9, 0.9 0.9, 0.9 1))
#> # ℹ 80 more rows
…
# solve the problem
s3 <- solve(p3)

# print solution
print(s3)
#> Simple feature collection with 90 features and 9 fields
#> Geometry type: POLYGON
#> Dimension:     XY
#> Bounding box:  xmin: 0 ymin: 0 xmax: 1 ymax: 1
#> Projected CRS: Undefined Cartesian SRS
#> # A tibble: 90 × 10
#>    cost_1 cost_2 cost_3 locked_1 locked_2 locked_3 solution_1_zone_1
#>     <dbl>  <dbl>  <dbl> <lgl>    <lgl>    <lgl>                <dbl>
#>  1   216.   183.   205. FALSE    FALSE    FALSE                    0
#>  2   213.   189.   210. FALSE    FALSE    FALSE                    0
#>  3   207.   194.   215. TRUE     FALSE    FALSE                    0
#>  4   209.   198.   219. FALSE    FALSE    FALSE                    0
#>  5   214.   200.   221. FALSE    FALSE    FALSE                    0
#>  6   214.   203.   225. FALSE    FALSE    FALSE                    0
#>  7   211.   209.   223. FALSE    FALSE    FALSE                    0
#>  8   210.   212.   222. TRUE     FALSE    FALSE                    0
#>  9   204.   218.   214. FALSE    FALSE    FALSE                    0
#> 10   213.   183.   206. FALSE    FALSE    FALSE                    0
#> # ℹ 80 more rows
#> # ℹ 3 more variables: solution_1_zone_2 <dbl>, solution_1_zone_3 <dbl>,
#> #   geom <POLYGON [m]>
…
