Specify targets following a set of rules — spec_rule_targets • prioritizr
…
# add a column indicating if each feature has a Critically Endangered threat
# status, based on random simulated values
rule_data$critically_endangered <- sample(
  c(TRUE, FALSE), terra::nlyr(sim_complex_features),
  replace = TRUE, prob = c(0.3, 0.7)
) & !rule_data$endangered & !rule_data$vulnerable

# preview rule data
print(rule_data)
#> # A tibble: 100 × 7
#>    feature    small_distribution large_distribution low_quality vulnerable
#>    <chr>      <lgl>              <lgl>              <lgl>       <lgl>     
#>  1 feature_1  FALSE              TRUE               TRUE        TRUE      
#>  2 feature_2  FALSE              TRUE               FALSE       FALSE     
#>  3 feature_3  FALSE              TRUE               TRUE        TRUE      
#>  4 feature_4  FALSE              TRUE               FALSE       FALSE     
#>  5 feature_5  FALSE              TRUE               TRUE        TRUE      
#>  6 feature_6  FALSE              TRUE               FALSE       TRUE      
#>  7 feature_7  FALSE              TRUE               FALSE       FALSE     
#>  8 feature_8  FALSE              TRUE               TRUE        FALSE     
#>  9 feature_9  FALSE              TRUE               TRUE        TRUE      
#> 10 feature_10 FALSE              TRUE               FALSE       FALSE     
#> # ℹ 90 more rows
#> # ℹ 2 more variables: endangered <lgl>, critically_endangered <lgl>
…
